[
    {
        "pk": 1, 
        "model": "cartwear_support.tickettype", 
        "fields": {
            "name": "Question"
        }
    }, 
    {
        "pk": 2, 
        "model": "cartwear_support.tickettype", 
        "fields": {
            "name": "Ransom"
        }
    }, 
    {
        "pk": 1, 
        "model": "cartwear_support.ticketstatus", 
        "fields": {
            "name": "New"
        }
    }, 
    {
        "pk": 3, 
        "model": "cartwear_support.ticketstatus", 
        "fields": {
            "name": "Open"
        }
    }, 
    {
        "pk": 4, 
        "model": "cartwear_support.ticketstatus", 
        "fields": {
            "name": "Solved"
        }
    }, 
    {
        "pk": 5, 
        "model": "cartwear_support.ticketstatus", 
        "fields": {
            "name": "Pending"
        }
    }, 
    {
        "pk": 1, 
        "model": "cartwear_support.ticket", 
        "fields": {
            "status": 1, 
            "body": "I want 2 Million dollars by Friday or I stop working on the issue tracker!", 
            "parent": null, 
            "date_updated": "2012-12-05T06:26:59.856Z", 
            "is_internal": false, 
            "number": "1", 
            "subticket_number": 0, 
            "assignee": null, 
            "requester": 2, 
            "date_created": "2012-12-05T06:26:59.855Z", 
            "assigned_group": null, 
            "type": 2, 
            "subject": "test subject"
        }
    }, 
    {
        "pk": 3, 
        "model": "cartwear_support.basemessage", 
        "fields": {
            "text": "I'll got get the money then, I guess!", 
            "ticket": 1, 
            "user": 1, 
            "date_created": "2012-12-05T06:34:48.459Z"
        }
    }, 
    {
        "pk": 2, 
        "model": "cartwear_support.basemessage", 
        "fields": {
            "text": "Oh, and don't even try to call the Police or I'll cut you!!!!!", 
            "ticket": 1, 
            "user": 2, 
            "date_created": "2012-12-05T06:34:26.163Z"
        }
    }, 
    {
        "pk": 1, 
        "model": "cartwear_support.basemessage", 
        "fields": {
            "text": "I think I should call the Police", 
            "ticket": 1, 
            "user": 1, 
            "date_created": "2012-12-05T06:30:51.672Z"
        }
    }, 
    {
        "pk": 3, 
        "model": "cartwear_support.message", 
        "fields": {}
    }, 
    {
        "pk": 2, 
        "model": "cartwear_support.message", 
        "fields": {}
    }, 
    {
        "pk": 1, 
        "model": "cartwear_support.note", 
        "fields": {}
    }
]
